{
	"AWSTemplateFormatVersion": "2010-09-09",
	"Description": "IAM configuration",
	"Parameters": {
		"EnvironmentType": {
			"Description": "Type of Environment",
			"Type": "String",
      "AllowedValues" : ["Prod", "Test"],
      "Default": "Test",
      "ConstraintDescription" : "must specify Prod or Test."
		},
 		"MyBBFilesS3LocationBucket": {
			"Description": "The name of S3 bucket for MyBB files ",
			"Type": "String",
			"Default": "andreyasoskovtest-files"
		} 	
	},
	"Mappings": {
	},
	"Resources": {
    "DataDBInitLambdaIAMRole": {
      "Type": "AWS::IAM::Role",
      "Properties": {
        "ManagedPolicyArns": [ 
          "arn:aws:iam::aws:policy/service-role/AWSLambdaVPCAccessExecutionRole"],        
        "AssumeRolePolicyDocument": {
          "Version": "2012-10-17",
          "Statement": [
            {
              "Effect": "Allow",
              "Principal": {"Service": ["lambda.amazonaws.com"]},
              "Action": ["sts:AssumeRole"]
            }
          ]
        },
        "Path": "/"
      }
    }, 
    "BeanstalkUpdateLambdaIAMRole": {
      "Type": "AWS::IAM::Role",
      "Properties": {
        "ManagedPolicyArns": ["arn:aws:iam::aws:policy/AWSElasticBeanstalkFullAccess"],        
        "AssumeRolePolicyDocument": {
          "Version": "2012-10-17",
          "Statement": [{
              "Effect": "Allow",
              "Principal": {"Service": ["lambda.amazonaws.com"]},
              "Action": ["sts:AssumeRole"]
          }]
        },
        "Path": "/"
      }
    },   
    "MyBBBeanstalkInstanceIAMRole": {
      "Type": "AWS::IAM::Role",
      "Properties": {
        "ManagedPolicyArns": ["arn:aws:iam::aws:policy/AWSElasticBeanstalkWebTier"],
        "AssumeRolePolicyDocument": {
          "Version" : "2012-10-17",
          "Statement": [ 
            {
              "Effect": "Allow",
              "Principal": {
                "Service": [ "ec2.amazonaws.com" ]
              },
              "Action": [ "sts:AssumeRole" ]
            }
          ]
        },
        "Path": "/"
      }
    },
    "BeanstalkServiceIAMRole": {
      "Type": "AWS::IAM::Role",
      "Properties": {
        "ManagedPolicyArns": [
          "arn:aws:iam::aws:policy/service-role/AWSElasticBeanstalkEnhancedHealth",
          "arn:aws:iam::aws:policy/service-role/AWSElasticBeanstalkService",
          "arn:aws:iam::aws:policy/AWSElasticBeanstalkFullAccess"
        ],
        "AssumeRolePolicyDocument": {
          "Version" : "2012-10-17",
          "Statement": [ {
            "Effect": "Allow",
            "Principal": {
              "Service": [ "elasticbeanstalk.amazonaws.com" ]
            },
            "Action": [ "sts:AssumeRole" ],
            "Condition": {
              "StringEquals": {
                "sts:ExternalId": "elasticbeanstalk"
              }
            }
          }
          ]
        },
        "Path": "/" 
      }
    },
    "MyBBManSysAPIIAMRole": {
      "Type": "AWS::IAM::Role",
      "Properties": {
        "AssumeRolePolicyDocument": {
          "Version": "2012-10-17",
          "Statement": [ {
            "Effect": "Allow",
            "Principal": {
              "Service": [ "elasticbeanstalk.amazonaws.com" ]
            },
            "Action": [ "sts:AssumeRole" ],
            "Condition": {
              "StringEquals": {
                "sts:ExternalId": "elasticbeanstalk"
              }
            }
          }
          ]
        },
        "Path": "/"
      }
    },  
    "MyBBManSysLambdaIAMRole": {
      "Type": "AWS::IAM::Role",
      "Properties": {
        "AssumeRolePolicyDocument": {
          "Version": "2012-10-17",
          "Statement": [{
              "Effect": "Allow",
              "Principal": {"Service": ["lambda.amazonaws.com"]},
              "Action": ["sts:AssumeRole"]
          }]
        },
        "Path": "/"
      }
    },  
    "LogsIAMPolicy": {
      "Type" : "AWS::IAM::Policy",
      "Properties" : { 
          "PolicyDocument" : 
           {
            "Statement": [
              {
                "Effect"   : "Allow",
                "Action"   : ["logs:CreateLogGroup","logs:CreateLogStream","logs:PutLogEvents"],
                "Resource" : "arn:aws:logs:*:*:*"
              }
            ]
            },
          "PolicyName" : "LogsIAMPolicy",  
          "Roles" : [ { "Ref": "MyBBBeanstalkInstanceIAMRole" }, { "Ref": "DataDBInitLambdaIAMRole" }, { "Ref": "BeanstalkUpdateLambdaIAMRole" }, { "Ref": "MyBBManSysLambdaIAMRole" }]
        }
    },
    "GetMyBBFilesIAMPolicy": {
      "Type" : "AWS::IAM::Policy",
      "Properties" : { 
          "PolicyDocument" : 
           {
            "Statement": [
              {
                "Effect"   : "Allow",
                "Action"   : ["s3:GetObject"],
                "Resource" : { "Fn::Join": ["", ["arn:aws:s3:::", { "Ref": "MyBBFilesS3LocationBucket" }, "/*"]] }
              }
            ]
            },
          "PolicyName" : "GetMyBBFilesIAMPolicy",  
          "Roles" : [ { "Ref": "MyBBBeanstalkInstanceIAMRole" }, { "Ref": "DataDBInitLambdaIAMRole" }, { "Ref": "MyBBManSysLambdaIAMRole" }]
        }
    },
    "DBInitLambdaIAMPolicy": {
        "Type" : "AWS::IAM::Policy",
        "Properties" : { 
          "PolicyDocument" : 
          {
            "Statement": [
              {
                "Effect": "Allow",
                "Resource": "*",
                "Action": ["ec2:DetachNetworkInterface"]
              }             
            ]
          },
          "PolicyName" : "DBInitLambdaIAMPolicy",  
          "Roles" : [ { "Ref": "DataDBInitLambdaIAMRole" } ]
        }
    },
    "UpdateBeanstalkIAMPolicy": {
        "Type" : "AWS::IAM::Policy",
        "Properties" : { 
          "PolicyDocument" : 
           {
            "Statement": [
              {
                "Effect"   : "Allow",
                "Action"   : ["elasticbeanstalk:UpdateEnvironment"],
                "Resource" : [{ "Fn::Join": [":", ["arn:aws:elasticbeanstalk", { "Ref": "AWS::Region" }, { "Ref": "AWS::AccountId" }, "environment/MyBB/MyBBAppEnv"]] }]
              }
            ]
            },
          "PolicyName" : "UpdateBeanstalkIAMPolicy",  
          "Roles" : [ { "Ref": "BeanstalkUpdateLambdaIAMRole" } ]
        }
    },
    "MyBBManSysLambdaIAMPolicy": {
        "Type" : "AWS::IAM::Policy",
        "Properties" : { 
          "PolicyDocument" : 
           {
            "Statement": [
              {
                "Effect"   : "Allow",
                "Action"   : ["dynamodb:*"],
                "Resource" : { "Fn::Join": [":", ["arn:aws:dynamodb", { "Ref": "AWS::Region" }, { "Ref": "AWS::AccountId" }, "table/MyBBConfig"]] }               
              },
              {
                "Effect"   : "Allow",
                "Action"   : ["elasticbeanstalk:*"],
                "Resource" : { "Fn::Join": [":", ["arn:aws:elasticbeanstalk", { "Ref": "AWS::Region" }, { "Ref": "AWS::AccountId" }, "environment/MyBB/MyBBAppEnv"]] }        
              }
            ]
            },
          "PolicyName" : "MyBBManSysLambdaIAMPolicy",  
          "Roles" : [ { "Ref": "MyBBManSysLambdaIAMRole" } ]
        }
    },
    "MyBBBeanstalkIAMInstanceProfile": {
      "Type": "AWS::IAM::InstanceProfile",
      "Properties": {
        "Path": "/",
          "Roles": [ { "Ref": "MyBBBeanstalkInstanceIAMRole" }]
      }
    },
    "ECSEC2Role":{
      "Type":"AWS::IAM::Role",
      "Properties":{
        "AssumeRolePolicyDocument":{
          "Statement":[
            {
              "Effect":"Allow",
              "Principal":{"Service":["ec2.amazonaws.com"]},
              "Action":["sts:AssumeRole"]
            }
          ]
        },
        "Path":"/",
        "Policies":[
          {
            "PolicyName":"ecs-service",
            "PolicyDocument":{
              "Statement":[
                {
                  "Effect":"Allow",
                  "Action":[
                    "ecs:CreateCluster",
                    "ecs:DeregisterContainerInstance",
                    "ecs:DiscoverPollEndpoint",
                    "ecs:Poll",
                    "ecs:RegisterContainerInstance",
                    "ecs:StartTelemetrySession",
                    "ecs:Submit*",
                    "logs:CreateLogStream",
                    "logs:PutLogEvents"
                  ],
                  "Resource":"*"
                }
              ]
            }
          }
        ]
      }
    },
    "ECSAutoscalingRole":{
      "Type":"AWS::IAM::Role",
      "Properties":{
        "AssumeRolePolicyDocument":{
          "Statement":[
            {
              "Effect":"Allow",
              "Principal":{
                "Service":["application-autoscaling.amazonaws.com"]
              },
              "Action":["sts:AssumeRole"]
            }
          ]
        },
        "Path":"/",
        "Policies":[
          {
            "PolicyName":"service-autoscaling",
            "PolicyDocument":{
              "Statement":[
                {
                  "Effect":"Allow",
                  "Action":[
                    "application-autoscaling:*",
                    "cloudwatch:DescribeAlarms",
                    "cloudwatch:PutMetricAlarm",
                    "ecs:DescribeServices",
                    "ecs:UpdateService"
                  ],
                  "Resource":"*"
                }
              ]
            }
          }
        ]
      }
    },
    "ECSServiceRole":{
      "Type":"AWS::IAM::Role",
      "Properties":{
        "AssumeRolePolicyDocument":{
          "Statement":[
            {
              "Effect":"Allow",
              "Principal":{
                "Service":[
                  "ecs.amazonaws.com"
                ]
              },
              "Action":[
                "sts:AssumeRole"
              ]
            }
          ]
        },
        "Path":"/",
        "Policies":[
          {
            "PolicyName":"ecs-service",
            "PolicyDocument":{
              "Statement":[
                {
                  "Effect":"Allow",
                  "Action":[
                    "elasticloadbalancing:DeregisterInstancesFromLoadBalancer",
                    "elasticloadbalancing:DeregisterTargets",
                    "elasticloadbalancing:Describe*",
                    "elasticloadbalancing:RegisterInstancesWithLoadBalancer",
                    "elasticloadbalancing:RegisterTargets",
                    "ec2:Describe*",
                    "ec2:AuthorizeSecurityGroupIngress"
                  ],
                  "Resource":"*"
                }
              ]
            }
          }
        ]
      }
    },
    "ECSEC2InstanceProfile":{
      "Type":"AWS::IAM::InstanceProfile",
      "Properties":{
        "Path":"/",
        "Roles":[{"Ref":"ECSEC2Role"}]
      }
    }
	},
	"Outputs": {
    "DataDBInitLambdaIAMRoleArn": {
      "Value": {"Fn::GetAtt": ["DataDBInitLambdaIAMRole", "Arn"]},
      "Description": "IAM Role Arn for Lambda function to populate Data DB with empty tables",
      "Export" : { "Name" : {"Fn::Sub": "${AWS::StackName}-DataDBInitLambdaIAMRoleArn" }}
    },
    "BeanstalkUpdateLambdaIAMRoleArn": {
      "Value": {"Fn::GetAtt": ["BeanstalkUpdateLambdaIAMRole", "Arn"]},
      "Description": "IAM Role for Lambda function to update Beanstalk Environment",
      "Export" : { "Name" : {"Fn::Sub": "${AWS::StackName}-BeanstalkUpdateLambdaIAMRoleArn" }}
    },
    "MyBBBeanstalkInstanceIAMRole": {
      "Value": { "Ref": "MyBBBeanstalkInstanceIAMRole" },
      "Description": "IAM Role for My BB Beanstalk Intances",
      "Export" : { "Name" : {"Fn::Sub": "${AWS::StackName}-MyBBBeanstalkInstanceIAMRole" }}
    },
    "BeanstalkServiceIAMRole": {
      "Value": { "Ref": "BeanstalkServiceIAMRole" },
      "Description": "IAM Beanstalk Service Role for Enhanced Monitoring",
      "Export" : { "Name" : {"Fn::Sub": "${AWS::StackName}-BeanstalkServiceIAMRole" }}
    },
    "MyBBManSysLambdaIAMRole": {
      "Value": { "Ref": "MyBBManSysLambdaIAMRole" },
      "Description": "IAM Role to access Dynamo DB and MyBB Beanstalk Environment",
      "Export" : { "Name" : {"Fn::Sub": "${AWS::StackName}-MyBBManSysLambdaIAMRole" }}
    },
		"MyBBBeanstalkIAMInstanceProfile": {
			"Value": { "Ref": "MyBBBeanstalkIAMInstanceProfile" },
			"Description": "IAM Instance Profile to MyBB Beanstalk Instances",
      "Export" : { "Name" : {"Fn::Sub": "${AWS::StackName}-MyBBBeanstalkIAMInstanceProfile" }}
		},
    "ECSEC2Role": {
      "Value": { "Ref": "ECSEC2Role" },
      "Description": "IAM Role for ECSEC2",
          "Export" : { "Name" : {"Fn::Sub": "${EnvironmentType}-${AWS::StackName}-ECSEC2Role" }}
    },
    "ECSEC2InstanceProfile": {
      "Value": { "Ref": "ECSEC2InstanceProfile" },
      "Description": "IAM InstanceProfile for ECSEC2",
          "Export" : { "Name" : {"Fn::Sub": "${EnvironmentType}-${AWS::StackName}-ECSEC2InstanceProfile" }}
    },
    "ECSServiceRole": {
      "Value": { "Ref": "ECSServiceRole" },
      "Description": "ECS IAM Service Role ",
          "Export" : { "Name" : {"Fn::Sub": "${EnvironmentType}-${AWS::StackName}-ECSServiceRole" }}
    },
    "ECSAutoscalingRole": {
      "Value": { "Fn::GetAtt": ["ECSAutoscalingRole", "Arn"] },
      "Description": "IAM Role for ECSAutoscaling",
          "Export" : { "Name" : {"Fn::Sub": "${EnvironmentType}-${AWS::StackName}-ECSAutoscalingRole" }}
    }
	}
}